{
  "meta": {
    "limit": 12,
    "next": "http://localhost:9999/api/v2/mutual-connections/?format=json&limit=12&offset=12",
    "offset": 0,
    "previous": null,
    "total_count": 25
  },
  "objects": [
    {
      "about": "“Don’t waste my time, don’t mess with me, I am a magician, if you doubt me, I’ll put a spell on you”",
      "age": 29,
      "distance": [
        189,
        "miles"
      ],
      "es_score": null,
      "facebook_id": "10207269494316005",
      "first_name": "Mirjana",
      "friends_score": 10,
      "gender": "f",
      "goals": [
        {
          "hire a dog sitter": 0,
          "learn about 3d printing and drawing": 1,
          "learn gymnastics": 1,
          "learn to play piano": 1,
          "plan a trip to europe": 0
        }
      ],
      "id": "29",
      "image": "https://d2v6m3k9ul63ej.cloudfront.net/images/facebook_profiles/2016/03/08/fb_image_10207269494316005_1.jpg",
      "interests": [
        {
          "animals": 0,
          "animation": 0,
          "cooking": 0,
          "crossfit": 1,
          "design": 0,
          "dogs": 0,
          "drawing": 0,
          "gardening": 0,
          "gymnastics": 1,
          "health": 0,
          "horses": 1
        }
      ],
      "keywords": [
        "horses",
        "coding",
        "gardening",
        "startup",
        "gymnastics",
        "mountain",
        "health",
        "piano",
        "dogs",
        "3d",
        "europe",
        "python",
        "crossfit",
        "hiring",
        "dog",
        "volleyball",
        "django",
        "tech",
        "biking"
      ],
      "last_login": "2016-05-26T08:23:37.820531",
      "last_name": "Popovic",
      "linkedin_provider": null,
      "lives_in": "Novi Sad, Serbia",
      "mutual": true,
      "mutual_likes_count": 1,
      "offers": [
        {
          "find a mountain biking partner": 1,
          "learn how to code django python": 1,
          "learn to play volleyball": 0,
          "network with tech startup people": 1,
          "teach kids to play the piano": 1
        }
      ],
      "photos": [],
      "position": {
        "company": "Saturized - The Interactive Agency",
        "job": "Interface Designer"
      },
      "resource_uri": "/api/v2/mutual-connections/29/",
      "score": 11,
      "top_interests": [
        {
          "3d printing": 1,
          "classical piano": 1,
          "crossfit": 1,
          "gymnastics": 1,
          "horse riding": 1,
          "tech": 1
        }
      ],
      "total_likes_count": 109,
      "twitter_provider": null,
      "twitter_username": null,
      "user_id": "29",
      "user_type": "persice",
      "username": "minja10"
    },
    {
      "about": null,
      "age": null,
      "distance": [
        190,
        "miles"
      ],
      "es_score": null,
      "facebook_id": "10153499968741198",
      "first_name": "Ljubomir",
      "friends_score": null,
      "gender": "all",
      "goals": null,
      "id": "10153499968741198",
      "image": null,
      "interests": null,
      "keywords": null,
      "last_login": null,
      "last_name": "Simin",
      "linkedin_provider": null,
      "lives_in": null,
      "mutual": true,
      "mutual_likes_count": null,
      "offers": null,
      "photos": null,
      "position": null,
      "resource_uri": "/api/v2/mutual-connections/10153499968741198/",
      "score": null,
      "top_interests": null,
      "total_likes_count": null,
      "twitter_provider": null,
      "twitter_username": null,
      "user_id": "99",
      "user_type": "facebook",
      "username": null
    },
    {
      "about": "\"Real stupidity beats artificial intelligence every time.\" \r\n    Terry Pratchett, Hogfather  change2\r\n",
      "age": 31,
      "distance": [
        190,
        "miles"
      ],
      "es_score": null,
      "facebook_id": "10153499968741198",
      "first_name": "Ljubomir",
      "friends_score": 3,
      "gender": "m",
      "goals": [
        {
          "learn how to code django python": 1,
          "learn to fly": 0
        }
      ],
      "id": "99",
      "image": "https://d2v6m3k9ul63ej.cloudfront.net/images/facebook_profiles/2016/04/20/fb_image_10153499968741198_1461156893.jpg",
      "interests": [
        {
          "3d printing": 1,
          "acting": 0,
          "animals": 0,
          "animation": 0,
          "antiques": 1,
          "archery": 0,
          "architecture": 0,
          "art": 0,
          "artificial intelligence": 0,
          "backpacking": 0,
          "badminton": 0,
          "ballet": 0,
          "ballet dancing": 1,
          "beer": 1,
          "jazz": 0,
          "kitesurfing / kiteboarding": 1,
          "knitting": 0,
          "laser tag": 0,
          "linux": 0,
          "live music": 0,
          "magic": 0
        }
      ],
      "keywords": [
        "magic",
        "coding",
        "intelligence",
        "tag",
        "badminton",
        "antiques",
        "ballet",
        "backpacking",
        "beer",
        "artificial",
        "music",
        "3d",
        "knitting",
        "python",
        "jazzing",
        "laser",
        "archery",
        "dancing",
        "kitesurfing",
        "django",
        "kiteboarding",
        "architecture"
      ],
      "last_login": "2016-07-12T10:53:52.918836",
      "last_name": "Simin",
      "linkedin_provider": null,
      "lives_in": "Novi Sad, Serbia",
      "mutual": true,
      "mutual_likes_count": 0,
      "offers": [
        {
          "learn linux": 0
        }
      ],
      "photos": [],
      "position": {
        "company": "COING",
        "job": "Software Engineering Lead"
      },
      "resource_uri": "/api/v2/mutual-connections/99/",
      "score": 6,
      "top_interests": [
        {
          "3d printing": 1,
          "antiques": 1,
          "ballet dancing": 1,
          "beer": 1,
          "coding": 1,
          "kitesurfing": 1
        }
      ],
      "total_likes_count": 64,
      "twitter_provider": null,
      "twitter_username": null,
      "user_id": "99",
      "user_type": "persice",
      "username": "ljubomirsimin"
    },
    {
      "about": null,
      "age": null,
      "distance": [
        189,
        "miles"
      ],
      "es_score": null,
      "facebook_id": "10207269494316005",
      "first_name": "Mirjana",
      "friends_score": null,
      "gender": "all",
      "goals": null,
      "id": "10207269494316005",
      "image": null,
      "interests": null,
      "keywords": null,
      "last_login": null,
      "last_name": "Popovic",
      "linkedin_provider": null,
      "lives_in": null,
      "mutual": true,
      "mutual_likes_count": null,
      "offers": null,
      "photos": null,
      "position": null,
      "resource_uri": "/api/v2/mutual-connections/10207269494316005/",
      "score": null,
      "top_interests": null,
      "total_likes_count": null,
      "twitter_provider": null,
      "twitter_username": null,
      "user_id": "29",
      "user_type": "facebook",
      "username": null
    },
    {
      "about": null,
      "age": 45,
      "distance": [
        6123,
        "miles"
      ],
      "es_score": null,
      "facebook_id": "1374540312867775",
      "first_name": "Mike",
      "friends_score": 1,
      "gender": "m",
      "goals": [
        {
          "get accepted into a startup incubator": 0,
          "join local volunteer groups": 1,
          "learn about 3d printing and drawing": 1,
          "learn how to code django python": 1
        }
      ],
      "id": "5",
      "image": "https://d2v6m3k9ul63ej.cloudfront.net/images/facebook_profiles/2016/05/27/fb_image_1374540312867775_1464358136.jpg",
      "interests": [
        {
          "astronomy": 1,
          "crossfit": 1,
          "health": 0,
          "hiking": 0,
          "mountain biking": 1,
          "racquetball": 0,
          "software engineering": 1,
          "tough mudder": 0
        }
      ],
      "keywords": [
        "coding",
        "tough",
        "hiking",
        "startup",
        "engineering",
        "mountain",
        "astronomy",
        "crossfit",
        "mudder",
        "health",
        "math",
        "3d",
        "python",
        "volunteering",
        "racquetball",
        "dog",
        "django",
        "incubator",
        "biking",
        "software"
      ],
      "last_login": "2016-06-08T16:05:42.507117",
      "last_name": "Putnam",
      "linkedin_provider": null,
      "lives_in": null,
      "mutual": false,
      "mutual_likes_count": 0,
      "offers": [
        {
          "teach people about crossfit": 1,
          "teach their dog new tricks": 0,
          "tutor kids in math": 0
        }
      ],
      "photos": [],
      "position": {
        "company": null,
        "job": null
      },
      "resource_uri": "/api/v2/mutual-connections/5/",
      "score": 8,
      "top_interests": [
        {
          "3d printing": 1,
          "astronomy": 1,
          "coding": 1,
          "mountain biking": 1,
          "software engineering": 1,
          "volunteering": 1
        }
      ],
      "total_likes_count": 0,
      "twitter_provider": null,
      "twitter_username": null,
      "user_id": "5",
      "user_type": "persice",
      "username": "mike_vgkxitx_putnam"
    },
    {
      "about": "I love the outdoors and being connected to nature. But, I'm also a closet tech geek.",
      "age": 35,
      "distance": [
        5751,
        "miles"
      ],
      "es_score": null,
      "facebook_id": "1374492942875712",
      "first_name": "Will",
      "friends_score": 2,
      "gender": "m",
      "goals": [
        {
          "find people to go snowboarding with": 0,
          "learn how to dj electronic music": 1,
          "read more books and join a sci-fi book club": 0
        }
      ],
      "id": "8",
      "image": "https://d2v6m3k9ul63ej.cloudfront.net/images/facebook_profiles/2016/06/09/fb_image_1374492942875712_1465493318.jpg",
      "interests": [
        {
          "3d printing": 1,
          "astronomy": 1,
          "camping": 1,
          "classic cars": 0,
          "coding": 1,
          "drones": 0,
          "edm": 1,
          "guitar": 0,
          "jazz": 0,
          "laser tag": 0,
          "linux": 0,
          "motorcycles": 0,
          "mountain biking": 0,
          "skydiving": 0,
          "snowboarding": 0,
          "surfing": 0,
          "table tennis": 0,
          "technology": 0,
          "video games": 0,
          "virtual reality": 0,
          "weightlifting": 0
        }
      ],
      "keywords": [
        "tennis",
        "drones",
        "coding",
        "edm",
        "skydiving",
        "virtual",
        "electronic",
        "mountain",
        "camping",
        "technology",
        "reality",
        "music",
        "scifi",
        "jazzing",
        "guitar",
        "weightlifting",
        "laser",
        "astronomy",
        "surfing",
        "motorcycles",
        "tag",
        "snowboarding",
        "3d",
        "biking"
      ],
      "last_login": "2016-06-09T17:24:55.297597",
      "last_name": "Williams",
      "linkedin_provider": null,
      "lives_in": null,
      "mutual": false,
      "mutual_likes_count": 0,
      "offers": [
        {
          "Show people local camping spots": 1,
          "give people advice about motorcycles": 0,
          "show people local camping spots": 0
        }
      ],
      "photos": [],
      "position": {
        "company": null,
        "job": null
      },
      "resource_uri": "/api/v2/mutual-connections/8/",
      "score": 7,
      "top_interests": [
        {
          "3d printing": 1,
          "astronomy": 1,
          "camping": 1,
          "coding": 1,
          "edm": 1,
          "electronic music": 1
        }
      ],
      "total_likes_count": 0,
      "twitter_provider": null,
      "twitter_username": null,
      "user_id": "8",
      "user_type": "persice",
      "username": "will_hakojod_williams"
    },
    {
      "about": null,
      "age": 35,
      "distance": [
        4289,
        "miles"
      ],
      "es_score": null,
      "facebook_id": "10153429822254363",
      "first_name": "Michael",
      "friends_score": 2,
      "gender": "m",
      "goals": [
        {
          "find a running partner": 0,
          "play guitar in a local band": 1
        }
      ],
      "id": "24",
      "image": "https://d2v6m3k9ul63ej.cloudfront.net/images/facebook_profiles/2015/05/27/fb_image_10153429822254363.jpg",
      "interests": [
        {
          "astronomy": 1,
          "machine learning": 0,
          "meditation": 0,
          "politics": 0,
          "technology": 1,
          "trivia": 0
        }
      ],
      "keywords": [
        "coding",
        "meditation",
        "technology",
        "trivia",
        "python",
        "guitar",
        "astronomy",
        "computers",
        "django",
        "politics"
      ],
      "last_login": "2016-02-24T00:04:53.126089",
      "last_name": "Moss",
      "linkedin_provider": null,
      "lives_in": "Hoboken, New Jersey",
      "mutual": false,
      "mutual_likes_count": 0,
      "offers": [
        {
          "learn how to code django python": 1,
          "teach people to program computers": 1
        }
      ],
      "photos": [],
      "position": {
        "company": null,
        "job": null
      },
      "resource_uri": "/api/v2/mutual-connections/24/",
      "score": 5,
      "top_interests": [
        {
          "astronomy": 1,
          "coding": 1,
          "computers": 1,
          "guitar": 1,
          "politics": 0,
          "technology": 1
        }
      ],
      "total_likes_count": 16,
      "twitter_provider": null,
      "twitter_username": null,
      "user_id": "24",
      "user_type": "persice",
      "username": "michaelmoss"
    },
    {
      "about": "www.saturized.com",
      "age": 40,
      "distance": [
        190,
        "miles"
      ],
      "es_score": null,
      "facebook_id": "10153110101807998",
      "first_name": "Zoran",
      "friends_score": 6,
      "gender": "m",
      "goals": [
        {
          "get accepted into a startup incubator": 0
        }
      ],
      "id": "30",
      "image": "https://d2v6m3k9ul63ej.cloudfront.net/images/facebook_profiles/2015/07/22/fb_image_10153110101807998.jpg",
      "interests": [
        {
          "computing": 1,
          "crossfit": 1,
          "gymnastics": 1,
          "martial arts": 0,
          "skateboarding": 0,
          "snowboarding": 0
        }
      ],
      "keywords": [
        "crossfit",
        "digital",
        "startup",
        "computing",
        "incubator",
        "gymnastics",
        "martialing",
        "snowboarding",
        "skateboarding"
      ],
      "last_login": "2016-07-01T13:22:43.762603",
      "last_name": "Usancevic",
      "linkedin_provider": null,
      "lives_in": "Novi Sad, Serbia",
      "mutual": false,
      "mutual_likes_count": 0,
      "offers": [
        {
          "find a great restaurant": 0,
          "learn to build digital product": 0
        }
      ],
      "photos": [],
      "position": {
        "company": "Saturized - The Interactive Agency",
        "job": "Co-founder"
      },
      "resource_uri": "/api/v2/mutual-connections/30/",
      "score": 3,
      "top_interests": [
        {
          "computing": 1,
          "crossfit": 1,
          "gymnastics": 1,
          "martial arts": 0,
          "skateboarding": 0,
          "snowboarding": 0
        }
      ],
      "total_likes_count": 60,
      "twitter_provider": null,
      "twitter_username": null,
      "user_id": "30",
      "user_type": "persice",
      "username": "zoranu"
    },
    {
      "about": null,
      "age": 31,
      "distance": [
        190,
        "miles"
      ],
      "es_score": null,
      "facebook_id": "10156281180270640",
      "first_name": "Petar",
      "friends_score": 4,
      "gender": "m",
      "goals": [
        {
          "clothing brand": 0,
          "type design": 0
        }
      ],
      "id": "46",
      "image": "https://d2v6m3k9ul63ej.cloudfront.net/images/facebook_profiles/2016/02/17/fb_image_10156281180270640.jpg",
      "interests": [
        {
          "animation": 0,
          "antiques": 1,
          "archery": 1,
          "architecture": 1,
          "ballet dancing": 1,
          "baseball": 1
        }
      ],
      "keywords": [
        "archery",
        "ballet",
        "dancing",
        "typing",
        "branding",
        "antiques",
        "architecture",
        "baseball"
      ],
      "last_login": "2016-03-08T12:01:34.037129",
      "last_name": "Acanski",
      "linkedin_provider": null,
      "lives_in": "Novi Sad, Serbia",
      "mutual": false,
      "mutual_likes_count": 0,
      "offers": [
        {}
      ],
      "photos": [],
      "position": {
        "company": "Bitanga",
        "job": "Hybrid Designer"
      },
      "resource_uri": "/api/v2/mutual-connections/46/",
      "score": 5,
      "top_interests": [
        {
          "antiques": 1,
          "archery": 1,
          "architecture": 1,
          "ballet dancing": 1,
          "baseball": 1,
          "line dancing": 0
        }
      ],
      "total_likes_count": 118,
      "twitter_provider": null,
      "twitter_username": null,
      "user_id": "46",
      "user_type": "persice",
      "username": "acanskipetar"
    },
    {
      "about": "testing 1234asdsadsadsaasdsa dsad sadsad sadsad sadasdsa dsad sadasd sadsad sadsadsadas dasd asdsadsa da sdasdas",
      "age": 31,
      "distance": [
        11,
        "meters"
      ],
      "es_score": null,
      "facebook_id": "560101450791647",
      "first_name": "Saša",
      "friends_score": 1238,
      "gender": "m",
      "goals": [
        {
          "find a great restaurant": 0,
          "learn about 3d printing and drawing": 1,
          "learn german": 1,
          "learn gymnastics": 0,
          "learn spanish": 1,
          "learn to ride a bike": 1,
          "teach people how to kitesurf": 1
        }
      ],
      "id": "57",
      "image": "https://d2v6m3k9ul63ej.cloudfront.net/images/facebook_profiles/2016/05/25/fb_image_560101450791647_1464153126.jpg",
      "interests": [
        {
          "3d printing": 0,
          "acting": 0,
          "animals": 0,
          "animation": 0,
          "antiques": 0,
          "archery": 0,
          "architecture": 0,
          "art": 0,
          "astronomy": 1,
          "atvs": 0,
          "ballet": 0,
          "ballet dancing": 0,
          "bar hopping": 0,
          "base jumping": 0,
          "baseball": 0,
          "basketball": 0,
          "beer": 0,
          "billiards": 0,
          "board games": 0,
          "bodybuilding": 0,
          "books": 0,
          "bungee jumping": 0,
          "camping": 0,
          "cars": 0,
          "chess": 0,
          "choreography": 0,
          "cinema": 0,
          "classic cars": 0,
          "classical guitar": 0,
          "classical piano": 0,
          "coding": 0,
          "coffee": 1,
          "computer graphics": 0,
          "concerts": 0,
          "croquet": 1,
          "darts": 0,
          "drawing": 0,
          "drones": 0,
          "edm": 0,
          "electronics": 0,
          "environmentalism": 0,
          "farming": 0,
          "field hockey": 1,
          "golf": 0,
          "horse riding / equestrianism": 1,
          "virtual reality": 0,
          "volunteering": 0
        }
      ],
      "keywords": [
        "coding",
        "german",
        "spanish",
        "coding",
        "edm",
        "gymnastics",
        "virtual",
        "bodybuilding",
        "reality",
        "drones",
        "cinema",
        "horsing",
        "basketball",
        "computer",
        "crossfit",
        "camping",
        "bungee",
        "billiards",
        "antiques",
        "equestrianism",
        "beer",
        "biking",
        "hockey",
        "croqueting",
        "piano",
        "farming",
        "3d",
        "coffee",
        "ballet",
        "reactjs",
        "guitar",
        "choreography",
        "baseball",
        "environmentalism",
        "darts",
        "graphics",
        "chess",
        "astronomy",
        "archery",
        "volunteering",
        "dancing",
        "atvs",
        "concerts",
        "angular2",
        "architecture",
        "kitesurfing",
        "electronics"
      ],
      "last_login": "2016-07-13T09:58:22.017301",
      "last_name": "Macakanja",
      "linkedin_provider": "https://www.linkedin.com/in/sa%C5%A1a-macakanja-637ba5b1",
      "lives_in": "Zagreb, Croatia",
      "mutual": false,
      "mutual_likes_count": 100,
      "offers": [
        {
          "learn about crossfit": 1,
          "teach people how to code in angular2": 1,
          "teach people how to code in reactjs": 1
        }
      ],
      "photos": [],
      "position": {
        "company": "Meridian Studio",
        "job": "CEO"
      },
      "resource_uri": "/api/v2/mutual-connections/57/",
      "score": 113,
      "top_interests": [
        {
          "3d printing": 1,
          "biking": 1,
          "coffee": 1,
          "german": 1,
          "horse riding": 1,
          "kitesurfing": 1
        }
      ],
      "total_likes_count": 100,
      "twitter_provider": "Sasha M.",
      "twitter_username": "SashaM07",
      "user_id": "57",
      "user_type": "persice",
      "username": "sasamacakanja"
    },
    {
      "about": "For what it's worth: it's never too late or, in my case, too early to be whoever you want to be. There's no time limit, stop whenever you want. You can change or stay the same, there are no rules to this thing. We can make the best or the worst of it. I hope you make the best of it. And I hope you see things that startle you. I hope you feel things you've never felt before. I hope you meet people with a different point of view. I hope you live a life your proud of. If you find that your not, I hope you have the strength to start all over again :-)",
      "age": 33,
      "distance": [
        6123,
        "miles"
      ],
      "es_score": null,
      "facebook_id": "1665040063758720",
      "first_name": "Katherine",
      "friends_score": 4,
      "gender": "f",
      "goals": [
        {
          "become a spin instructor": 0,
          "do a triathlon": 0,
          "fearlessly do a head stand": 0,
          "learn to salsa dance": 1,
          "live every day like it's my last": 0,
          "run a mountain ": 0,
          "travel the world": 0
        }
      ],
      "id": "60",
      "image": "https://d2v6m3k9ul63ej.cloudfront.net/images/facebook_profiles/2016/06/16/fb_image_1665040063758720_1466114385.jpg",
      "interests": [
        {
          "art": 0,
          "books": 0,
          "camping": 1,
          "concerts": 1,
          "crossfit": 1,
          "dancing": 0,
          "electronics": 1,
          "exercise": 0,
          "foodie": 0,
          "hiking": 0,
          "jazz": 0,
          "jewelry": 0,
          "kayaking": 0,
          "live music": 0,
          "mountain biking": 1,
          "mountain climbing": 0,
          "music": 0,
          "reading": 0,
          "running": 0,
          "salsa dancing": 0,
          "singing": 0,
          "wine": 0
        }
      ],
      "keywords": [
        "hiking",
        "dancing",
        "foodie",
        "mountain",
        "triathlon",
        "crossfit",
        "camping",
        "dancing",
        "traveling",
        "music",
        "electronics",
        "exercising",
        "jazzing",
        "laughbrighten",
        "every",
        "salsa",
        "instructor",
        "spinning",
        "jewelry",
        "climbing",
        "biking",
        "kayaking",
        "concerts",
        "becoming",
        "fearlessly"
      ],
      "last_login": "2016-07-12T18:51:36.730201",
      "last_name": "Kirby",
      "linkedin_provider": null,
      "lives_in": "Austin, Texas",
      "mutual": false,
      "mutual_likes_count": 1,
      "offers": [
        {
          "make people smile and laugh...brighten a day one person at a time": 0
        }
      ],
      "photos": [],
      "position": {
        "company": "University Medical Center Brackenridge",
        "job": "Registered Nurse"
      },
      "resource_uri": "/api/v2/mutual-connections/60/",
      "score": 7,
      "top_interests": [
        {
          "ballet dancing": 1,
          "ballroom dancing": 1,
          "concerts": 1,
          "country dancing": 1,
          "crossfit": 1,
          "line dancing": 1
        }
      ],
      "total_likes_count": 100,
      "twitter_provider": null,
      "twitter_username": null,
      "user_id": "60",
      "user_type": "persice",
      "username": "jdsmom28"
    },
    {
      "about": null,
      "age": 26,
      "distance": [
        6123,
        "miles"
      ],
      "es_score": null,
      "facebook_id": "108714636178513",
      "first_name": "Alexander",
      "friends_score": 3,
      "gender": "m",
      "goals": [
        {
          "find a golf partner": 0
        }
      ],
      "id": "61",
      "image": "https://d2v6m3k9ul63ej.cloudfront.net/images/facebook_profiles/2016/02/25/fb_image_108714636178513.jpg",
      "interests": [
        {
          "basketball": 1,
          "golf": 0,
          "kitesurfing / kiteboarding": 1,
          "mountain biking": 1,
          "paleo diet": 0,
          "running": 0,
          "science fiction": 1,
          "skiing": 0,
          "software engineering": 1,
          "technology": 0,
          "video games": 0,
          "virtual reality": 0
        }
      ],
      "keywords": [
        "engineering",
        "skiing",
        "reality",
        "technology",
        "mountain",
        "paleo",
        "basketball",
        "virtual",
        "fiction",
        "dieting",
        "science",
        "kitesurfing",
        "kiteboarding",
        "biking",
        "software"
      ],
      "last_login": "2016-02-25T03:59:41.819597",
      "last_name": "Anderson",
      "linkedin_provider": null,
      "lives_in": "Scottsdale, Arizona",
      "mutual": false,
      "mutual_likes_count": 0,
      "offers": [
        {
          "teach kids golf lessons": 0
        }
      ],
      "photos": [],
      "position": {
        "company": "Facebook",
        "job": "Project Coordinator"
      },
      "resource_uri": "/api/v2/mutual-connections/61/",
      "score": 5,
      "top_interests": [
        {
          "basketball": 1,
          "kitesurfing": 1,
          "mountain biking": 1,
          "paleo diet": 0,
          "science fiction": 1,
          "software engineering": 1
        }
      ],
      "total_likes_count": 0,
      "twitter_provider": null,
      "twitter_username": null,
      "user_id": "61",
      "user_type": "persice",
      "username": "alexander_jdwwdiz_anderson"
    }
  ]
}
